…
``` r
distinct(nyctransit, line, station_name)
```

    ## # A tibble: 465 × 2
    ##    line     station_name            
    ##    <chr>    <chr>                   
    ##  1 4 avenue 25th st                 
    ##  2 4 avenue 36th st                 
    ##  3 4 avenue 45th st                 
    ##  4 4 avenue 53rd st                 
    ##  5 4 avenue 59th st                 
    ##  6 4 avenue 77th st                 
    ##  7 4 avenue 86th st                 
    ##  8 4 avenue 95th st                 
    ##  9 4 avenue 9th st                  
    ## 10 4 avenue atlantic av-barclays ctr
    ## # … with 455 more rows
…
